lab5-adventure_game2/simulation/qsim/lab05_nc.msim.vcd
$comment
	File created using the following command:
		vcd file lab05_nc.msim.vcd -direction
$end
$date
	Thu Oct 17 16:43:51 2024
$end
$version
	ModelSim Version 10.3d
$end
$timescale
	1ps
$end

$scope module game_vlg_vec_tst $end
$var reg 1 ! clk $end
$var reg 1 " e $end
$var reg 1 # n $end
$var reg 1 $ reset $end
$var reg 1 % s $end
$var reg 1 & w $end
$var wire 1 ' d $end
$var wire 1 ( s0 $end
$var wire 1 ) s1 $end
$var wire 1 * s2 $end
$var wire 1 + s3 $end
$var wire 1 , s4 $end
$var wire 1 - s5 $end
$var wire 1 . s6 $end
$var wire 1 / sw $end
$var wire 1 0 v $end
$var wire 1 1 win $end
$var wire 1 2 sampler $end

$scope module i1 $end
$var wire 1 3 gnd $end
$var wire 1 4 vcc $end
$var wire 1 5 unknown $end
$var tri1 1 6 devclrn $end
$var tri1 1 7 devpor $end
$var tri1 1 8 devoe $end
$var wire 1 9 s6~output_o $end
$var wire 1 : win~output_o $end
$var wire 1 ; s5~output_o $end
$var wire 1 < d~output_o $end
$var wire 1 = s4~output_o $end
$var wire 1 > s3~output_o $end
$var wire 1 ? sw~output_o $end
$var wire 1 @ s2~output_o $end
$var wire 1 A s1~output_o $end
$var wire 1 B s0~output_o $end
$var wire 1 C v~output_o $end
$var wire 1 D clk~input_o $end
$var wire 1 E clk~inputclkctrl_outclk $end
$var wire 1 F reset~input_o $end
$var wire 1 G e~input_o $end
$var wire 1 H w~input_o $end
$var wire 1 I s~input_o $end
$var wire 1 J n~input_o $end
$var wire 1 K room_fsm|st0~0_combout $end
$var wire 1 L room_fsm|st0~1_combout $end
$var wire 1 M room_fsm|dff0|q~q $end
$var wire 1 N room_fsm|st1~0_combout $end
$var wire 1 O room_fsm|st1~1_combout $end
$var wire 1 P room_fsm|dff1|q~q $end
$var wire 1 Q room_fsm|st2~0_combout $end
$var wire 1 R room_fsm|st2~1_combout $end
$var wire 1 S room_fsm|dff2|q~q $end
$var wire 1 T room_fsm|st3~0_combout $end
$var wire 1 U room_fsm|st3~1_combout $end
$var wire 1 V room_fsm|dff3|q~q $end
$var wire 1 W sword_fsm|v1~combout $end
$var wire 1 X sword_fsm|dff6|q~q $end
$var wire 1 Y room_fsm|st4~0_combout $end
$var wire 1 Z room_fsm|dff4|q~q $end
$var wire 1 [ room_fsm|st6~0_combout $end
$var wire 1 \ room_fsm|dff6|q~q $end
$var wire 1 ] room_fsm|st5~0_combout $end
$var wire 1 ^ room_fsm|dff5|q~q $end
$upscope $end
$upscope $end
$enddefinitions $end
#0
$dumpvars
0!
0"
0#
1$
0%
0&
0'
0(
0)
0*
0+
0,
0-
0.
0/
00
01
x2
03
14
x5
16
17
18
09
0:
0;
0<
0=
0>
0?
0@
0A
0B
0C
0D
0E
1F
0G
0H
0I
0J
0K
1L
0M
0N
0O
0P
0Q
0R
0S
0T
0U
0V
0W
0X
0Y
0Z
0[
0\
0]
0^
$end
#10000
1!
1D
02
1E
1M
1B
1K
1(
#20000
0$
0!
0F
0D
12
0E
#30000
1"
1!
1G
1D
02
1E
1N
0K
1O
0L
#40000
0!
0D
12
0E
#50000
0"
1!
0G
1D
02
1E
0N
1K
0O
1L
1P
0M
0B
1A
1N
0K
0(
1)
1O
0L
#60000
1%
0!
1I
0D
12
0E
1Q
0N
1R
0O
#70000
1!
1D
02
1E
1S
0P
0A
1@
0Q
0)
1*
0R
#80000
0%
0!
0I
0D
12
0E
#90000
1&
1!
1H
1D
02
1E
1T
1U
0S
0@
0T
0*
0U
#100000
0!
0D
12
0E
#110000
0&
1!
0H
1D
02
1E
#120000
1"
1%
0!
1G
1I
0D
12
0E
#130000
1!
1D
02
1E
#140000
0"
0%
0!
0G
0I
0D
12
0E
#150000
1!
1D
02
1E
#160000
0!
0D
12
0E
#170000
1!
1D
02
1E
#180000
0!
0D
12
0E
#190000
1!
1D
02
1E
#200000
0!
0D
12
0E
#210000
1!
1D
02
1E
#220000
0!
0D
12
0E
#230000
1!
1D
02
1E
#240000
0!
0D
12
0E
#250000
1!
1D
02
1E
#260000
0!
0D
12
0E
#270000
1!
1D
02
1E
#280000
0!
0D
12
0E
#290000
1!
1D
02
1E
#300000
0!
0D
12
0E
#310000
1!
1D
02
1E
#320000
0!
0D
12
0E
#330000
1!
1D
02
1E
#340000
0!
0D
12
0E
#350000
1!
1D
02
1E
#360000
0!
0D
12
0E
#370000
1!
1D
02
1E
#380000
0!
0D
12
0E
#390000
1!
1D
02
1E
#400000
0!
0D
12
0E
#410000
1!
1D
02
1E
#420000
0!
0D
12
0E
#430000
1!
1D
02
1E
#440000
0!
0D
12
0E
#450000
1!
1D
02
1E
#460000
0!
0D
12
0E
#470000
1!
1D
02
1E
#480000
0!
0D
12
0E
#490000
1!
1D
02
1E
#500000
0!
0D
12
0E
#510000
1!
1D
02
1E
#520000
0!
0D
12
0E
#530000
1!
1D
02
1E
#540000
0!
0D
12
0E
#550000
1!
1D
02
1E
#560000
0!
0D
12
0E
#570000
1!
1D
02
1E
#580000
0!
0D
12
0E
#590000
1!
1D
02
1E
#600000
0!
0D
12
0E
#610000
1!
1D
02
1E
#620000
0!
0D
12
0E
#630000
1!
1D
02
1E
#640000
0!
0D
12
0E
#650000
1!
1D
02
1E
#660000
0!
0D
12
0E
#670000
1!
1D
02
1E
#680000
0!
0D
12
0E
#690000
1!
1D
02
1E
#700000
0!
0D
12
0E
#710000
1!
1D
02
1E
#720000
0!
0D
12
0E
#730000
1!
1D
02
1E
#740000
0!
0D
12
0E
#750000
1!
1D
02
1E
#760000
0!
0D
12
0E
#770000
1!
1D
02
1E
#780000
0!
0D
12
0E
#790000
1!
1D
02
1E
#800000
0!
0D
12
0E
#810000
1!
1D
02
1E
#820000
0!
0D
12
0E
#830000
1!
1D
02
1E
#840000
0!
0D
12
0E
#850000
1!
1D
02
1E
#860000
0!
0D
12
0E
#870000
1!
1D
02
1E
#880000
0!
0D
12
0E
#890000
1!
1D
02
1E
#900000
0!
0D
12
0E
#910000
1!
1D
02
1E
#920000
0!
0D
12
0E
#930000
1!
1D
02
1E
#940000
0!
0D
12
0E
#950000
1!
1D
02
1E
#960000
0!
0D
12
0E
#970000
1!
1D
02
1E
#980000
0!
0D
12
0E
#990000
1!
1D
02
1E
