lab4-adventure_game/simulation/qsim/lab04_nc.msim.vcd
$comment
	File created using the following command:
		vcd file lab04_nc.msim.vcd -direction
$end
$date
	Sun Oct 13 21:23:46 2024
$end
$version
	ModelSim Version 10.3d
$end
$timescale
	1ps
$end

$scope module Game_vlg_vec_tst $end
$var reg 1 ! CLK $end
$var reg 1 " E $end
$var reg 1 # N $end
$var reg 1 $ R $end
$var reg 1 % S $end
$var reg 1 & W $end
$var wire 1 ' d $end
$var wire 1 ( s0 $end
$var wire 1 ) s1 $end
$var wire 1 * s2 $end
$var wire 1 + s3 $end
$var wire 1 , s4 $end
$var wire 1 - s5 $end
$var wire 1 . s6 $end
$var wire 1 / sw $end
$var wire 1 0 V $end
$var wire 1 1 win $end
$var wire 1 2 sampler $end

$scope module i1 $end
$var wire 1 3 gnd $end
$var wire 1 4 vcc $end
$var wire 1 5 unknown $end
$var tri1 1 6 devclrn $end
$var tri1 1 7 devpor $end
$var tri1 1 8 devoe $end
$var wire 1 9 d~output_o $end
$var wire 1 : win~output_o $end
$var wire 1 ; s6~output_o $end
$var wire 1 < s5~output_o $end
$var wire 1 = s3~output_o $end
$var wire 1 > s4~output_o $end
$var wire 1 ? s2~output_o $end
$var wire 1 @ s1~output_o $end
$var wire 1 A s0~output_o $end
$var wire 1 B V~output_o $end
$var wire 1 C sw~output_o $end
$var wire 1 D CLK~input_o $end
$var wire 1 E inst5|inst43~combout $end
$var wire 1 F R~input_o $end
$var wire 1 G inst|inst3~combout $end
$var wire 1 H inst5|inst40~combout $end
$var wire 1 I W~input_o $end
$var wire 1 J inst5|inst39~combout $end
$var wire 1 K S~input_o $end
$var wire 1 L inst5|inst38~combout $end
$var wire 1 M E~input_o $end
$var wire 1 N N~input_o $end
$var wire 1 O inst5|inst2~0_combout $end
$var wire 1 P inst5|inst41~combout $end
$var wire 1 Q inst5|inst23~combout $end
$var wire 1 R inst5|inst17~q $end
$var wire 1 S inst5|inst53~0_combout $end
$var wire 1 T inst5|inst42~combout $end
$var wire 1 U inst5|inst5~combout $end
$var wire 1 V inst5|inst18~q $end
$var wire 1 W inst5|inst53~1_combout $end
$var wire 1 X inst5|inst53~combout $end
$var wire 1 Y inst5|inst4~combout $end
$var wire 1 Z inst5|inst13~feeder_combout $end
$var wire 1 [ inst5|inst13~q $end
$var wire 1 \ inst5|inst2~1_combout $end
$var wire 1 ] inst5|inst14~q $end
$var wire 1 ^ inst5|inst~0_combout $end
$var wire 1 _ inst5|inst~1_combout $end
$var wire 1 ` inst5|inst15~q $end
$var wire 1 a inst5|inst3~combout $end
$var wire 1 b inst5|inst16~q $end
$var wire 1 c inst|inst2~combout $end
$var wire 1 d inst|inst13~q $end
$var wire 1 e inst5|inst6~combout $end
$var wire 1 f inst5|inst19~q $end
$upscope $end
$upscope $end
$enddefinitions $end
#0
$dumpvars
0!
0"
0#
0$
0%
0&
0'
0(
0)
0*
0+
0,
0-
0.
0/
00
01
x2
03
14
x5
16
17
18
09
0:
0;
0<
0=
0>
0?
0@
0A
0B
0C
0D
0E
0F
0G
0H
0I
0J
0K
0L
0M
0N
0O
0P
0Q
0R
0S
0T
0U
0V
0W
0X
0Y
0Z
0[
0\
0]
0^
0_
0`
0a
0b
0c
0d
0e
0f
$end
#10000
1!
1"
1D
1M
02
1S
1T
1P
1L
1J
1H
1G
1E
1X
#20000
0!
0D
12
0S
0T
0P
0L
0J
0H
0G
0E
0X
#30000
0"
1!
0M
1D
02
1S
1T
1P
1L
1J
1H
1G
1E
1X
#40000
1%
0!
1K
0D
12
0S
0T
0P
0L
0J
0H
0G
0E
0X
#50000
1!
1D
02
1S
1T
1P
1L
1J
1H
1G
1E
1X
#60000
0%
0!
0K
0D
12
0S
0T
0P
0L
0J
0H
0G
0E
0X
#70000
1&
1!
1I
1D
02
1S
1T
1P
1L
1J
1H
1G
1E
1X
#80000
0!
0D
12
0S
0T
0P
0L
0J
0H
0G
0E
0X
#90000
0&
1!
0I
1D
02
1S
1T
1P
1L
1J
1H
1G
1E
1X
#100000
1"
0!
1M
0D
12
0S
0T
0P
0L
0J
0H
0G
0E
0X
#110000
1!
1D
02
1S
1T
1P
1L
1J
1H
1G
1E
1X
#120000
0"
0!
0M
0D
12
0S
0T
0P
0L
0J
0H
0G
0E
0X
#130000
1!
1D
02
1S
1T
1P
1L
1J
1H
1G
1E
1X
#140000
0!
0D
12
0S
0T
0P
0L
0J
0H
0G
0E
0X
#150000
1!
1D
02
1S
1T
1P
1L
1J
1H
1G
1E
1X
#160000
0!
0D
12
0S
0T
0P
0L
0J
0H
0G
0E
0X
#170000
1!
1D
02
1S
1T
1P
1L
1J
1H
1G
1E
1X
#180000
0!
0D
12
0S
0T
0P
0L
0J
0H
0G
0E
0X
#190000
1!
1D
02
1S
1T
1P
1L
1J
1H
1G
1E
1X
#200000
0!
0D
12
0S
0T
0P
0L
0J
0H
0G
0E
0X
#210000
1!
1D
02
1S
1T
1P
1L
1J
1H
1G
1E
1X
#220000
0!
0D
12
0S
0T
0P
0L
0J
0H
0G
0E
0X
#230000
1!
1D
02
1S
1T
1P
1L
1J
1H
1G
1E
1X
#240000
0!
0D
12
0S
0T
0P
0L
0J
0H
0G
0E
0X
#250000
1!
1D
02
1S
1T
1P
1L
1J
1H
1G
1E
1X
#260000
0!
0D
12
0S
0T
0P
0L
0J
0H
0G
0E
0X
#270000
1!
1D
02
1S
1T
1P
1L
1J
1H
1G
1E
1X
#280000
0!
0D
12
0S
0T
0P
0L
0J
0H
0G
0E
0X
#290000
1!
1D
02
1S
1T
1P
1L
1J
1H
1G
1E
1X
#300000
0!
0D
12
0S
0T
0P
0L
0J
0H
0G
0E
0X
#310000
1!
1D
02
1S
1T
1P
1L
1J
1H
1G
1E
1X
#320000
0!
0D
12
0S
0T
0P
0L
0J
0H
0G
0E
0X
#330000
1!
1D
02
1S
1T
1P
1L
1J
1H
1G
1E
1X
#340000
0!
0D
12
0S
0T
0P
0L
0J
0H
0G
0E
0X
#350000
1!
1D
02
1S
1T
1P
1L
1J
1H
1G
1E
1X
#360000
0!
0D
12
0S
0T
0P
0L
0J
0H
0G
0E
0X
#370000
1!
1D
02
1S
1T
1P
1L
1J
1H
1G
1E
1X
#380000
0!
0D
12
0S
0T
0P
0L
0J
0H
0G
0E
0X
#390000
1!
1D
02
1S
1T
1P
1L
1J
1H
1G
1E
1X
#400000
0!
0D
12
0S
0T
0P
0L
0J
0H
0G
0E
0X
#410000
1!
1D
02
1S
1T
1P
1L
1J
1H
1G
1E
1X
#420000
0!
0D
12
0S
0T
0P
0L
0J
0H
0G
0E
0X
#430000
1!
1D
02
1S
1T
1P
1L
1J
1H
1G
1E
1X
#440000
0!
0D
12
0S
0T
0P
0L
0J
0H
0G
0E
0X
#450000
1!
1D
02
1S
1T
1P
1L
1J
1H
1G
1E
1X
#460000
0!
0D
12
0S
0T
0P
0L
0J
0H
0G
0E
0X
#470000
1!
1D
02
1S
1T
1P
1L
1J
1H
1G
1E
1X
#480000
0!
0D
12
0S
0T
0P
0L
0J
0H
0G
0E
0X
#490000
1!
1D
02
1S
1T
1P
1L
1J
1H
1G
1E
1X
#500000
0!
0D
12
0S
0T
0P
0L
0J
0H
0G
0E
0X
#510000
1!
1D
02
1S
1T
1P
1L
1J
1H
1G
1E
1X
#520000
0!
0D
12
0S
0T
0P
0L
0J
0H
0G
0E
0X
#530000
1!
1D
02
1S
1T
1P
1L
1J
1H
1G
1E
1X
#540000
0!
0D
12
0S
0T
0P
0L
0J
0H
0G
0E
0X
#550000
1!
1D
02
1S
1T
1P
1L
1J
1H
1G
1E
1X
#560000
0!
0D
12
0S
0T
0P
0L
0J
0H
0G
0E
0X
#570000
1!
1D
02
1S
1T
1P
1L
1J
1H
1G
1E
1X
#580000
0!
0D
12
0S
0T
0P
0L
0J
0H
0G
0E
0X
#590000
1!
1D
02
1S
1T
1P
1L
1J
1H
1G
1E
1X
#600000
0!
0D
12
0S
0T
0P
0L
0J
0H
0G
0E
0X
#610000
1!
1D
02
1S
1T
1P
1L
1J
1H
1G
1E
1X
#620000
0!
0D
12
0S
0T
0P
0L
0J
0H
0G
0E
0X
#630000
1!
1D
02
1S
1T
1P
1L
1J
1H
1G
1E
1X
#640000
0!
0D
12
0S
0T
0P
0L
0J
0H
0G
0E
0X
#650000
1!
1D
02
1S
1T
1P
1L
1J
1H
1G
1E
1X
#660000
0!
0D
12
0S
0T
0P
0L
0J
0H
0G
0E
0X
#670000
1!
1D
02
1S
1T
1P
1L
1J
1H
1G
1E
1X
#680000
0!
0D
12
0S
0T
0P
0L
0J
0H
0G
0E
0X
#690000
1!
1D
02
1S
1T
1P
1L
1J
1H
1G
1E
1X
#700000
0!
0D
12
0S
0T
0P
0L
0J
0H
0G
0E
0X
#710000
1!
1D
02
1S
1T
1P
1L
1J
1H
1G
1E
1X
#720000
0!
0D
12
0S
0T
0P
0L
0J
0H
0G
0E
0X
#730000
1!
1D
02
1S
1T
1P
1L
1J
1H
1G
1E
1X
#740000
0!
0D
12
0S
0T
0P
0L
0J
0H
0G
0E
0X
#750000
1!
1D
02
1S
1T
1P
1L
1J
1H
1G
1E
1X
#760000
0!
0D
12
0S
0T
0P
0L
0J
0H
0G
0E
0X
#770000
1!
1D
02
1S
1T
1P
1L
1J
1H
1G
1E
1X
#780000
0!
0D
12
0S
0T
0P
0L
0J
0H
0G
0E
0X
#790000
1!
1D
02
1S
1T
1P
1L
1J
1H
1G
1E
1X
#800000
0!
0D
12
0S
0T
0P
0L
0J
0H
0G
0E
0X
#810000
1!
1D
02
1S
1T
1P
1L
1J
1H
1G
1E
1X
#820000
0!
0D
12
0S
0T
0P
0L
0J
0H
0G
0E
0X
#830000
1!
1D
02
1S
1T
1P
1L
1J
1H
1G
1E
1X
#840000
0!
0D
12
0S
0T
0P
0L
0J
0H
0G
0E
0X
#850000
1!
1D
02
1S
1T
1P
1L
1J
1H
1G
1E
1X
#860000
0!
0D
12
0S
0T
0P
0L
0J
0H
0G
0E
0X
#870000
1!
1D
02
1S
1T
1P
1L
1J
1H
1G
1E
1X
#880000
0!
0D
12
0S
0T
0P
0L
0J
0H
0G
0E
0X
#890000
1!
1D
02
1S
1T
1P
1L
1J
1H
1G
1E
1X
#900000
0!
0D
12
0S
0T
0P
0L
0J
0H
0G
0E
0X
#910000
1!
1D
02
1S
1T
1P
1L
1J
1H
1G
1E
1X
#920000
0!
0D
12
0S
0T
0P
0L
0J
0H
0G
0E
0X
#930000
1!
1D
02
1S
1T
1P
1L
1J
1H
1G
1E
1X
#940000
0!
0D
12
0S
0T
0P
0L
0J
0H
0G
0E
0X
#950000
1!
1D
02
1S
1T
1P
1L
1J
1H
1G
1E
1X
#960000
0!
0D
12
0S
0T
0P
0L
0J
0H
0G
0E
0X
#970000
1!
1D
02
1S
1T
1P
1L
1J
1H
1G
1E
1X
#980000
0!
0D
12
0S
0T
0P
0L
0J
0H
0G
0E
0X
#990000
1!
1D
02
1S
1T
1P
1L
1J
1H
1G
1E
1X
